EESchema Schematic File Version 4
EELAYER 30 0
EELAYER END
$Descr A4 11693 8268
encoding utf-8
Sheet 1 1
Title "STM32 Designing Training Version 1"
Date "2021-06-16"
Rev "1.0"
Comp "STABLU Sci-Tech"
Comment1 "Designed by: SOR HOKLY"
Comment2 ""
Comment3 ""
Comment4 ""
$EndDescr
Text Notes 3850 800  0    157  ~ 31
STABLU R&D PCB Design Test
$Comp
L power:GND #PWR034
U 1 1 60D1EF7A
P 9700 6050
F 0 "#PWR034" H 9700 5800 50  0001 C CNN
F 1 "GND" H 9705 5877 50  0000 C CNN
F 2 "" H 9700 6050 50  0001 C CNN
F 3 "" H 9700 6050 50  0001 C CNN
	1    9700 6050
	1    0    0    -1  
$EndComp
Wire Wire Line
	9600 5850 9600 5950
Wire Wire Line
	9600 5950 9700 5950
Wire Wire Line
	9700 5950 9700 6050
Wire Wire Line
	9700 5850 9700 5950
Connection ~ 9700 5950
Wire Wire Line
	9700 5950 9800 5950
Wire Wire Line
	9800 5950 9800 5850
$Comp
L power:+3.3V #PWR033
U 1 1 60D1F0ED
P 9500 2050
F 0 "#PWR033" H 9500 1900 50  0001 C CNN
F 1 "+3.3V" H 9515 2223 50  0000 C CNN
F 2 "" H 9500 2050 50  0001 C CNN
F 3 "" H 9500 2050 50  0001 C CNN
	1    9500 2050
	1    0    0    -1  
$EndComp
Wire Wire Line
	9500 2050 9500 2150
Wire Wire Line
	9900 2250 9900 2150
Wire Wire Line
	9900 2150 9800 2150
Connection ~ 9500 2150
Wire Wire Line
	9500 2150 9500 2250
Wire Wire Line
	9600 2250 9600 2150
Connection ~ 9600 2150
Wire Wire Line
	9600 2150 9500 2150
Wire Wire Line
	9700 2250 9700 2150
Connection ~ 9700 2150
Wire Wire Line
	9700 2150 9600 2150
Wire Wire Line
	9800 2250 9800 2150
Connection ~ 9800 2150
Wire Wire Line
	9800 2150 9700 2150
$Comp
L power:+3.3VA #PWR036
U 1 1 60D1F3C9
P 10000 2050
F 0 "#PWR036" H 10000 1900 50  0001 C CNN
F 1 "+3.3VA" H 10015 2223 50  0000 C CNN
F 2 "" H 10000 2050 50  0001 C CNN
F 3 "" H 10000 2050 50  0001 C CNN
	1    10000 2050
	1    0    0    -1  
$EndComp
Wire Wire Line
	10000 2050 10000 2250
Text GLabel 8850 2450 0    59   Input ~ 0
NRST
Text GLabel 8850 2650 0    59   Input ~ 0
BOOT0
Wire Wire Line
	8850 2450 9000 2450
Wire Wire Line
	8850 2650 9000 2650
$Comp
L Switch:SW_SPDT SW1
U 1 1 60D1F8C3
P 7900 4100
F 0 "SW1" H 7900 4385 50  0000 C CNN
F 1 "SW_SPDT" H 7900 4294 50  0000 C CNN
F 2 "Button_Switch_SMD:SW_SPDT_PCM12" H 7900 4100 50  0001 C CNN
F 3 "" H 7900 4100 50  0001 C CNN
	1    7900 4100
	1    0    0    -1  
$EndComp
$Comp
L Device:R_Small R7
U 1 1 60D1FA4B
P 7550 4100
F 0 "R7" V 7354 4100 50  0000 C CNN
F 1 "10K" V 7445 4100 50  0000 C CNN
F 2 "Resistor_SMD:R_0402_1005Metric" H 7550 4100 50  0001 C CNN
F 3 "~" H 7550 4100 50  0001 C CNN
	1    7550 4100
	0    -1   -1   0   
$EndComp
$Comp
L Device:C_Small C12
U 1 1 60D1FBB5
P 8600 3150
F 0 "C12" H 8692 3196 50  0000 L CNN
F 1 "2u2" H 8692 3105 50  0000 L CNN
F 2 "Capacitor_SMD:C_0603_1608Metric" H 8600 3150 50  0001 C CNN
F 3 "~" H 8600 3150 50  0001 C CNN
	1    8600 3150
	1    0    0    -1  
$EndComp
$Comp
L Device:C_Small C10
U 1 1 60D1FDEF
P 8250 3150
F 0 "C10" H 8342 3196 50  0000 L CNN
F 1 "2u2" H 8342 3105 50  0000 L CNN
F 2 "Capacitor_SMD:C_0603_1608Metric" H 8250 3150 50  0001 C CNN
F 3 "~" H 8250 3150 50  0001 C CNN
	1    8250 3150
	1    0    0    -1  
$EndComp
$Comp
L power:GND #PWR029
U 1 1 60D1FE53
P 8250 3350
F 0 "#PWR029" H 8250 3100 50  0001 C CNN
F 1 "GND" H 8255 3177 50  0000 C CNN
F 2 "" H 8250 3350 50  0001 C CNN
F 3 "" H 8250 3350 50  0001 C CNN
	1    8250 3350
	1    0    0    -1  
$EndComp
$Comp
L power:GND #PWR032
U 1 1 60D2028A
P 8600 3350
F 0 "#PWR032" H 8600 3100 50  0001 C CNN
F 1 "GND" H 8605 3177 50  0000 C CNN
F 2 "" H 8600 3350 50  0001 C CNN
F 3 "" H 8600 3350 50  0001 C CNN
	1    8600 3350
	1    0    0    -1  
$EndComp
Wire Wire Line
	8250 3050 8250 2850
Wire Wire Line
	8250 2850 9000 2850
Wire Wire Line
	8600 3050 8600 2950
Wire Wire Line
	8600 2950 9000 2950
Wire Wire Line
	8250 3350 8250 3250
Wire Wire Line
	8600 3350 8600 3250
$Comp
L power:+3.3V #PWR030
U 1 1 60D340A9
P 8250 3900
F 0 "#PWR030" H 8250 3750 50  0001 C CNN
F 1 "+3.3V" H 8265 4073 50  0000 C CNN
F 2 "" H 8250 3900 50  0001 C CNN
F 3 "" H 8250 3900 50  0001 C CNN
	1    8250 3900
	1    0    0    -1  
$EndComp
$Comp
L power:GND #PWR031
U 1 1 60D34118
P 8250 4300
F 0 "#PWR031" H 8250 4050 50  0001 C CNN
F 1 "GND" H 8255 4127 50  0000 C CNN
F 2 "" H 8250 4300 50  0001 C CNN
F 3 "" H 8250 4300 50  0001 C CNN
	1    8250 4300
	1    0    0    -1  
$EndComp
Wire Wire Line
	8100 4200 8250 4200
Wire Wire Line
	8250 4200 8250 4300
Wire Wire Line
	8250 3900 8250 4000
Wire Wire Line
	8250 4000 8100 4000
Text GLabel 7400 4100 0    59   Input ~ 0
BOOT0
Wire Wire Line
	7400 4100 7450 4100
Text GLabel 8950 3650 0    50   Input ~ 0
HSE_IN
Text GLabel 8950 3750 0    50   Input ~ 0
HSE_OUT
Wire Wire Line
	8950 3750 9000 3750
Wire Wire Line
	8950 3650 9000 3650
Text GLabel 10500 3750 2    50   Input ~ 0
SWDIO
Text GLabel 10500 3850 2    50   Input ~ 0
SWCLK
Wire Wire Line
	10400 3750 10500 3750
Wire Wire Line
	10400 3850 10500 3850
Text GLabel 10500 3650 2    50   Input ~ 0
USB_D+
Text GLabel 10500 3550 2    50   Input ~ 0
USB_D-
Wire Wire Line
	10500 3550 10400 3550
Wire Wire Line
	10500 3650 10400 3650
Text GLabel 10500 4450 2    50   Input ~ 0
SW0
Text GLabel 10500 4750 2    50   Input ~ 0
I2C1_SCL
Wire Wire Line
	10400 4450 10500 4450
Wire Wire Line
	10400 4750 10500 4750
Text GLabel 10500 4850 2    50   Input ~ 0
I2C1_SDA
Wire Wire Line
	10400 4850 10500 4850
Text GLabel 10500 5150 2    50   Input ~ 0
UART3_Tx
Text GLabel 10500 5250 2    50   Input ~ 0
UART3_Rx
Wire Wire Line
	10500 5150 10400 5150
Wire Wire Line
	10500 5250 10400 5250
Text GLabel 10500 2650 2    50   Input ~ 0
LED_STATUS
Wire Wire Line
	10500 2650 10400 2650
NoConn ~ 10400 2450
NoConn ~ 10400 2550
NoConn ~ 10400 2750
NoConn ~ 10400 2850
NoConn ~ 10400 2950
NoConn ~ 10400 3050
NoConn ~ 10400 3150
NoConn ~ 10400 3250
NoConn ~ 10400 3350
NoConn ~ 10400 3450
NoConn ~ 10400 3950
NoConn ~ 10400 4150
NoConn ~ 10400 4250
NoConn ~ 10400 4350
NoConn ~ 10400 4550
NoConn ~ 10400 4650
NoConn ~ 10400 4950
NoConn ~ 10400 5050
NoConn ~ 10400 5350
$Comp
L MCU_ST_STM32F4:STM32F405RGTx U3
U 1 1 60D1ED89
P 9700 4050
F 0 "U3" H 9700 4550 50  0000 C CNN
F 1 "STM32F405RGT6" H 9700 4700 50  0000 C CNN
F 2 "Package_QFP:LQFP-64_10x10mm_P0.5mm" H 9100 2350 50  0001 R CNN
F 3 "http://www.st.com/st-web-ui/static/active/en/resource/technical/document/datasheet/DM00037051.pdf" H 9700 4050 50  0001 C CNN
	1    9700 4050
	1    0    0    -1  
$EndComp
NoConn ~ 10400 5450
NoConn ~ 10400 5550
NoConn ~ 10400 5650
NoConn ~ 9000 3950
NoConn ~ 9000 4150
NoConn ~ 9000 4250
NoConn ~ 9000 4350
NoConn ~ 9000 4450
NoConn ~ 9000 4550
NoConn ~ 9000 4650
NoConn ~ 9000 4750
NoConn ~ 9000 4850
NoConn ~ 9000 4950
NoConn ~ 9000 5050
NoConn ~ 9000 5150
NoConn ~ 9000 5250
NoConn ~ 9000 5350
NoConn ~ 9000 5450
NoConn ~ 9000 5550
NoConn ~ 9000 5650
$Comp
L Device:C_Small C6
U 1 1 60D4416F
P 7750 1650
F 0 "C6" H 7800 1800 50  0000 L CNN
F 1 "4u7" H 7800 1600 50  0000 L CNN
F 2 "Capacitor_SMD:C_0603_1608Metric" H 7750 1650 50  0001 C CNN
F 3 "~" H 7750 1650 50  0001 C CNN
	1    7750 1650
	1    0    0    -1  
$EndComp
$Comp
L Device:C_Small C7
U 1 1 60D44281
P 8000 1650
F 0 "C7" H 8050 1800 50  0000 L CNN
F 1 "100n" H 8050 1600 50  0000 L CNN
F 2 "Capacitor_SMD:C_0402_1005Metric" H 8000 1650 50  0001 C CNN
F 3 "~" H 8000 1650 50  0001 C CNN
	1    8000 1650
	1    0    0    -1  
$EndComp
$Comp
L Device:C_Small C9
U 1 1 60D44502
P 8250 1650
F 0 "C9" H 8300 1800 50  0000 L CNN
F 1 "100n" H 8300 1600 50  0000 L CNN
F 2 "Capacitor_SMD:C_0402_1005Metric" H 8250 1650 50  0001 C CNN
F 3 "~" H 8250 1650 50  0001 C CNN
	1    8250 1650
	1    0    0    -1  
$EndComp
$Comp
L Device:C_Small C11
U 1 1 60D44528
P 8500 1650
F 0 "C11" H 8550 1800 50  0000 L CNN
F 1 "100n" H 8550 1600 50  0000 L CNN
F 2 "Capacitor_SMD:C_0402_1005Metric" H 8500 1650 50  0001 C CNN
F 3 "~" H 8500 1650 50  0001 C CNN
	1    8500 1650
	1    0    0    -1  
$EndComp
$Comp
L Device:C_Small C13
U 1 1 60D4457D
P 8750 1650
F 0 "C13" H 8800 1800 50  0000 L CNN
F 1 "100n" H 8800 1600 50  0000 L CNN
F 2 "Capacitor_SMD:C_0402_1005Metric" H 8750 1650 50  0001 C CNN
F 3 "~" H 8750 1650 50  0001 C CNN
	1    8750 1650
	1    0    0    -1  
$EndComp
$Comp
L Device:C_Small C14
U 1 1 60D445AF
P 9050 1650
F 0 "C14" H 9000 1800 50  0000 L CNN
F 1 "100n" H 9100 1600 50  0000 L CNN
F 2 "Capacitor_SMD:C_0402_1005Metric" H 9050 1650 50  0001 C CNN
F 3 "~" H 9050 1650 50  0001 C CNN
	1    9050 1650
	1    0    0    -1  
$EndComp
Wire Wire Line
	7750 1550 8000 1550
Wire Wire Line
	8250 1550 8000 1550
Connection ~ 8000 1550
Wire Wire Line
	8250 1550 8500 1550
Connection ~ 8250 1550
Wire Wire Line
	8500 1550 8750 1550
Connection ~ 8500 1550
Wire Wire Line
	9050 1550 8750 1550
Connection ~ 8750 1550
Wire Wire Line
	7750 1750 8000 1750
Wire Wire Line
	8250 1750 8000 1750
Connection ~ 8000 1750
Wire Wire Line
	8250 1750 8500 1750
Connection ~ 8250 1750
Connection ~ 8500 1750
Wire Wire Line
	8500 1750 8750 1750
Connection ~ 8750 1750
Wire Wire Line
	8750 1750 9050 1750
$Comp
L power:+3.3V #PWR026
U 1 1 60D49BBD
P 7750 1550
F 0 "#PWR026" H 7750 1400 50  0001 C CNN
F 1 "+3.3V" H 7765 1723 50  0000 C CNN
F 2 "" H 7750 1550 50  0001 C CNN
F 3 "" H 7750 1550 50  0001 C CNN
	1    7750 1550
	1    0    0    -1  
$EndComp
Connection ~ 7750 1550
$Comp
L power:GND #PWR027
U 1 1 60D49CC6
P 7750 1800
F 0 "#PWR027" H 7750 1550 50  0001 C CNN
F 1 "GND" H 7755 1627 50  0000 C CNN
F 2 "" H 7750 1800 50  0001 C CNN
F 3 "" H 7750 1800 50  0001 C CNN
	1    7750 1800
	1    0    0    -1  
$EndComp
Wire Wire Line
	7750 1800 7750 1750
Connection ~ 7750 1750
$Comp
L Device:L_Small L2
U 1 1 60D4AD3D
P 10150 1550
F 0 "L2" V 10335 1550 50  0000 C CNN
F 1 "39n" V 10244 1550 50  0000 C CNN
F 2 "Inductor_SMD:L_0402_1005Metric" H 10150 1550 50  0001 C CNN
F 3 "~" H 10150 1550 50  0001 C CNN
	1    10150 1550
	0    -1   -1   0   
$EndComp
$Comp
L Device:C_Small C15
U 1 1 60D4AF65
P 10400 1750
F 0 "C15" H 10492 1796 50  0000 L CNN
F 1 "1u" H 10492 1705 50  0000 L CNN
F 2 "Capacitor_SMD:C_0402_1005Metric" H 10400 1750 50  0001 C CNN
F 3 "~" H 10400 1750 50  0001 C CNN
	1    10400 1750
	1    0    0    -1  
$EndComp
$Comp
L Device:C_Small C16
U 1 1 60D4AFD7
P 10750 1750
F 0 "C16" H 10842 1796 50  0000 L CNN
F 1 "10n" H 10842 1705 50  0000 L CNN
F 2 "Capacitor_SMD:C_0603_1608Metric" H 10750 1750 50  0001 C CNN
F 3 "~" H 10750 1750 50  0001 C CNN
	1    10750 1750
	1    0    0    -1  
$EndComp
Wire Wire Line
	10250 1550 10400 1550
Wire Wire Line
	10400 1550 10400 1650
Wire Wire Line
	10400 1550 10750 1550
Connection ~ 10400 1550
$Comp
L power:+3.3VA #PWR039
U 1 1 60D4CDB8
P 10750 1550
F 0 "#PWR039" H 10750 1400 50  0001 C CNN
F 1 "+3.3VA" H 10765 1723 50  0000 C CNN
F 2 "" H 10750 1550 50  0001 C CNN
F 3 "" H 10750 1550 50  0001 C CNN
	1    10750 1550
	1    0    0    -1  
$EndComp
Connection ~ 10750 1550
Wire Wire Line
	10750 1550 10750 1650
$Comp
L power:+3.3V #PWR035
U 1 1 60D509BF
P 9850 1500
F 0 "#PWR035" H 9850 1350 50  0001 C CNN
F 1 "+3.3V" H 9865 1673 50  0000 C CNN
F 2 "" H 9850 1500 50  0001 C CNN
F 3 "" H 9850 1500 50  0001 C CNN
	1    9850 1500
	1    0    0    -1  
$EndComp
Wire Wire Line
	9850 1500 9850 1550
Wire Wire Line
	9850 1550 10050 1550
$Comp
L power:GND #PWR037
U 1 1 60D519CB
P 10400 1900
F 0 "#PWR037" H 10400 1650 50  0001 C CNN
F 1 "GND" H 10405 1727 50  0000 C CNN
F 2 "" H 10400 1900 50  0001 C CNN
F 3 "" H 10400 1900 50  0001 C CNN
	1    10400 1900
	1    0    0    -1  
$EndComp
$Comp
L power:GND #PWR040
U 1 1 60D51A54
P 10750 1900
F 0 "#PWR040" H 10750 1650 50  0001 C CNN
F 1 "GND" H 10755 1727 50  0000 C CNN
F 2 "" H 10750 1900 50  0001 C CNN
F 3 "" H 10750 1900 50  0001 C CNN
	1    10750 1900
	1    0    0    -1  
$EndComp
Wire Wire Line
	10750 1850 10750 1900
Wire Wire Line
	10400 1850 10400 1900
$Comp
L Device:C_Small C8
U 1 1 60D54126
P 8200 5650
F 0 "C8" H 8292 5696 50  0000 L CNN
F 1 "12p" H 8292 5605 50  0000 L CNN
F 2 "Capacitor_SMD:C_0402_1005Metric" H 8200 5650 50  0001 C CNN
F 3 "~" H 8200 5650 50  0001 C CNN
	1    8200 5650
	1    0    0    -1  
$EndComp
$Comp
L Device:C_Small C5
U 1 1 60D54184
P 7500 5650
F 0 "C5" H 7592 5696 50  0000 L CNN
F 1 "12p" H 7592 5605 50  0000 L CNN
F 2 "Capacitor_SMD:C_0402_1005Metric" H 7500 5650 50  0001 C CNN
F 3 "~" H 7500 5650 50  0001 C CNN
	1    7500 5650
	1    0    0    -1  
$EndComp
$Comp
L Device:R_Small R8
U 1 1 60D545B1
P 8200 5150
F 0 "R8" V 8004 5150 50  0000 C CNN
F 1 "47" V 8095 5150 50  0000 C CNN
F 2 "Resistor_SMD:R_0402_1005Metric" H 8200 5150 50  0001 C CNN
F 3 "~" H 8200 5150 50  0001 C CNN
	1    8200 5150
	-1   0    0    1   
$EndComp
$Comp
L power:GND #PWR028
U 1 1 60D57E7E
P 7900 5800
F 0 "#PWR028" H 7900 5550 50  0001 C CNN
F 1 "GND" H 7905 5627 50  0000 C CNN
F 2 "" H 7900 5800 50  0001 C CNN
F 3 "" H 7900 5800 50  0001 C CNN
	1    7900 5800
	1    0    0    -1  
$EndComp
Wire Wire Line
	7500 5750 7500 5800
Wire Wire Line
	7500 5800 7900 5800
Wire Wire Line
	8200 5800 8200 5750
Connection ~ 7900 5800
Wire Wire Line
	7900 5800 8200 5800
Text GLabel 8250 4800 2    50   Input ~ 0
HSE_IN
Wire Wire Line
	8250 4800 7500 4800
Text GLabel 8250 4950 2    50   Input ~ 0
HSE_OUT
Wire Wire Line
	8250 4950 8200 4950
Wire Wire Line
	8200 4950 8200 5050
$Comp
L Device:Crystal_GND24 Y1
U 1 1 60D717D9
P 7900 5450
F 0 "Y1" H 7700 5600 50  0000 L CNN
F 1 "16MHz" H 7750 5750 50  0000 L CNN
F 2 "Crystal:Crystal_SMD_3225-4Pin_3.2x2.5mm" H 7900 5450 50  0001 C CNN
F 3 "~" H 7900 5450 50  0001 C CNN
	1    7900 5450
	1    0    0    -1  
$EndComp
Wire Wire Line
	8200 5250 8200 5450
Wire Wire Line
	7900 5650 7900 5800
Wire Wire Line
	7750 5450 7500 5450
Wire Wire Line
	7500 4800 7500 5450
Connection ~ 7500 5450
Wire Wire Line
	7500 5450 7500 5550
Wire Wire Line
	8050 5450 8200 5450
Connection ~ 8200 5450
Wire Wire Line
	8200 5450 8200 5550
Wire Wire Line
	7900 5250 8100 5250
Wire Wire Line
	8100 5250 8100 5650
Wire Wire Line
	8100 5650 7900 5650
Connection ~ 7900 5650
Text Notes 7500 6300 0    50   ~ 0
Formula: \nCload = 2(CL- Cstray)
Wire Notes Line
	8450 6350 7400 6350
Wire Notes Line
	7400 6100 8450 6100
Wire Notes Line
	7400 6100 7400 6350
Wire Notes Line
	8450 6100 8450 6350
Wire Notes Line
	11200 1050 6950 1050
Wire Notes Line
	6950 1050 6950 6550
Wire Notes Line
	6950 6550 11200 6550
Text Notes 7000 1200 0    79   ~ 16
STM32 Microcontroller
Wire Wire Line
	7650 4100 7700 4100
$Comp
L Device:LED_Small D3
U 1 1 60DD4835
P 7400 3300
F 0 "D3" H 7400 3535 50  0000 C CNN
F 1 "Green" H 7400 3444 50  0000 C CNN
F 2 "LED_SMD:LED_0603_1608Metric" V 7400 3300 50  0001 C CNN
F 3 "~" V 7400 3300 50  0001 C CNN
	1    7400 3300
	1    0    0    -1  
$EndComp
Text GLabel 7600 3300 2    50   Input ~ 0
LED_STATUS
Wire Wire Line
	7600 3300 7500 3300
$Comp
L power:GND #PWR025
U 1 1 60DD6AEE
P 7150 3600
F 0 "#PWR025" H 7150 3350 50  0001 C CNN
F 1 "GND" H 7155 3427 50  0000 C CNN
F 2 "" H 7150 3600 50  0001 C CNN
F 3 "" H 7150 3600 50  0001 C CNN
	1    7150 3600
	1    0    0    -1  
$EndComp
$Comp
L Device:R_Small R6
U 1 1 60DD6C6C
P 7150 3450
F 0 "R6" H 7250 3450 50  0000 C CNN
F 1 "1k5" H 7045 3450 50  0000 C CNN
F 2 "Resistor_SMD:R_0603_1608Metric" H 7150 3450 50  0001 C CNN
F 3 "~" H 7150 3450 50  0001 C CNN
	1    7150 3450
	-1   0    0    1   
$EndComp
Wire Wire Line
	7150 3350 7150 3300
Wire Wire Line
	7150 3300 7300 3300
Wire Wire Line
	7150 3550 7150 3600
$Comp
L STM32_Project_01-rescue:MP2359DJ-LF-Z-MyLib U1
U 1 1 60DDBC0C
P 3200 3200
F 0 "U1" H 3200 3850 47  0000 C CNB
F 1 "MP2359DJ-LF-Z" H 3200 3750 39  0000 C CNB
F 2 "Package_TO_SOT_SMD:TSOT-23-6" H 3050 3400 138 0001 C CNN
F 3 "" H 3050 3400 138 0001 C CNN
	1    3200 3200
	1    0    0    -1  
$EndComp
Text GLabel 2850 2850 0    39   Input ~ 0
BUCK_IN
Text GLabel 2850 3000 0    39   Input ~ 0
BUCK_EN
Text GLabel 3600 2850 2    39   Input ~ 0
BUCK_BST
Wire Wire Line
	2850 2850 2900 2850
Wire Wire Line
	2850 3000 2900 3000
Wire Wire Line
	3600 2850 3550 2850
Text GLabel 3600 3000 2    39   Input ~ 0
BUCK_SW
Wire Wire Line
	3600 3000 3550 3000
Text GLabel 3600 3150 2    39   Input ~ 0
BUCK_FB
Wire Wire Line
	3600 3150 3550 3150
$Comp
L power:GND #PWR012
U 1 1 60DE8CCE
P 3200 3350
F 0 "#PWR012" H 3200 3100 50  0001 C CNN
F 1 "GND" H 3205 3177 50  0000 C CNN
F 2 "" H 3200 3350 50  0001 C CNN
F 3 "" H 3200 3350 50  0001 C CNN
	1    3200 3350
	1    0    0    -1  
$EndComp
Wire Wire Line
	3200 3300 3200 3350
$Comp
L Device:Polyfuse_Small F1
U 1 1 60DEE4C4
P 2400 1650
F 0 "F1" V 2195 1650 50  0000 C CNN
F 1 "250mA" V 2286 1650 50  0000 C CNN
F 2 "Fuse:Fuse_1206_3216Metric" H 2450 1450 50  0001 L CNN
F 3 "~" H 2400 1650 50  0001 C CNN
	1    2400 1650
	0    1    1    0   
$EndComp
$Comp
L power:+12V #PWR01
U 1 1 60DEE85E
P 1250 1550
F 0 "#PWR01" H 1250 1400 50  0001 C CNN
F 1 "+12V" H 1265 1723 50  0000 C CNN
F 2 "" H 1250 1550 50  0001 C CNN
F 3 "" H 1250 1550 50  0001 C CNN
	1    1250 1550
	1    0    0    -1  
$EndComp
$Comp
L STM32_Project_01-rescue:AO3401A-FET Q1
U 1 1 60DEF299
P 1750 1750
F 0 "Q1" V 2092 1750 50  0000 C CNN
F 1 "AO3401A" V 2001 1750 50  0000 C CNN
F 2 "Package_TO_SOT_SMD:SOT-23" H 1950 1675 50  0001 L CIN
F 3 "http://www.aosmd.com/pdfs/datasheet/AO3401A.pdf" H 1750 1750 50  0001 L CNN
	1    1750 1750
	0    -1   -1   0   
$EndComp
$Comp
L Device:Ferrite_Bead_Small FB1
U 1 1 60DF9F4F
P 2750 1650
F 0 "FB1" V 2987 1650 50  0000 C CNN
F 1 "600 @600MHz" V 2900 1600 50  0000 C CNN
F 2 "Inductor_SMD:L_0805_2012Metric" V 2680 1650 50  0001 C CNN
F 3 "~" H 2750 1650 50  0001 C CNN
	1    2750 1650
	0    -1   -1   0   
$EndComp
$Comp
L Device:C_Small C1
U 1 1 60DFA1F0
P 3100 1800
F 0 "C1" H 3192 1846 50  0000 L CNN
F 1 "10u" H 3192 1755 50  0000 L CNN
F 2 "Capacitor_SMD:C_1206_3216Metric" H 3100 1800 50  0001 C CNN
F 3 "~" H 3100 1800 50  0001 C CNN
	1    3100 1800
	1    0    0    -1  
$EndComp
Wire Wire Line
	1250 1550 1250 1650
Wire Wire Line
	2850 1650 3100 1650
Wire Wire Line
	3100 1650 3100 1700
$Comp
L Device:R_Small R1
U 1 1 60E11007
P 2000 2800
F 0 "R1" H 2100 2800 50  0000 C CNN
F 1 "100k" H 1850 2800 50  0000 C CNN
F 2 "Resistor_SMD:R_0603_1608Metric" H 2000 2800 50  0001 C CNN
F 3 "~" H 2000 2800 50  0001 C CNN
	1    2000 2800
	-1   0    0    1   
$EndComp
Text GLabel 3450 1650 2    39   Input ~ 0
BUCK_IN
Wire Wire Line
	3100 1650 3450 1650
Connection ~ 3100 1650
$Comp
L Device:R_Small R2
U 1 1 60E14A02
P 2000 3150
F 0 "R2" H 2100 3150 50  0000 C CNN
F 1 "68k" H 1850 3150 50  0000 C CNN
F 2 "Resistor_SMD:R_0603_1608Metric" H 2000 3150 50  0001 C CNN
F 3 "~" H 2000 3150 50  0001 C CNN
	1    2000 3150
	-1   0    0    1   
$EndComp
Wire Wire Line
	2000 2900 2000 3000
Text GLabel 1700 2550 0    39   Input ~ 0
BUCK_IN
Wire Wire Line
	1700 2550 2000 2550
Wire Wire Line
	2000 2550 2000 2700
$Comp
L power:GND #PWR011
U 1 1 60E1B24B
P 3100 2000
F 0 "#PWR011" H 3100 1750 50  0001 C CNN
F 1 "GND" H 3105 1827 50  0000 C CNN
F 2 "" H 3100 2000 50  0001 C CNN
F 3 "" H 3100 2000 50  0001 C CNN
	1    3100 2000
	1    0    0    -1  
$EndComp
$Comp
L power:GND #PWR06
U 1 1 60E1B2DD
P 1750 2000
F 0 "#PWR06" H 1750 1750 50  0001 C CNN
F 1 "GND" H 1755 1827 50  0000 C CNN
F 2 "" H 1750 2000 50  0001 C CNN
F 3 "" H 1750 2000 50  0001 C CNN
	1    1750 2000
	1    0    0    -1  
$EndComp
Wire Wire Line
	1750 2000 1750 1950
Wire Wire Line
	3100 2000 3100 1900
$Comp
L power:GND #PWR04
U 1 1 60E21F07
P 2000 3300
F 0 "#PWR04" H 2000 3050 50  0001 C CNN
F 1 "GND" H 2005 3127 50  0000 C CNN
F 2 "" H 2000 3300 50  0001 C CNN
F 3 "" H 2000 3300 50  0001 C CNN
	1    2000 3300
	1    0    0    -1  
$EndComp
Wire Wire Line
	2000 3250 2000 3300
Text GLabel 1850 3000 0    39   Input ~ 0
BUCK_EN
Wire Wire Line
	1850 3000 2000 3000
Connection ~ 2000 3000
Wire Wire Line
	2000 3000 2000 3050
$Comp
L Device:D_Schottky_Small D2
U 1 1 60E37C3F
P 4450 2000
F 0 "D2" V 4404 2068 50  0000 L CNN
F 1 "B5819W" V 4495 2068 50  0000 L CNN
F 2 "Diode_SMD:D_SOD-123" V 4450 2000 50  0001 C CNN
F 3 "~" V 4450 2000 50  0001 C CNN
	1    4450 2000
	0    1    1    0   
$EndComp
$Comp
L Device:C_Small C2
U 1 1 60E37E8C
P 4450 1550
F 0 "C2" V 4221 1550 50  0000 C CNN
F 1 "10n" V 4312 1550 50  0000 C CNN
F 2 "Capacitor_SMD:C_0603_1608Metric" H 4450 1550 50  0001 C CNN
F 3 "~" H 4450 1550 50  0001 C CNN
	1    4450 1550
	0    1    1    0   
$EndComp
Text GLabel 4250 1550 0    39   Input ~ 0
BUCK_BST
Text GLabel 4650 1550 2    39   Input ~ 0
BUCK_SW
Wire Wire Line
	4350 1550 4250 1550
Wire Wire Line
	4550 1550 4650 1550
Text GLabel 4250 1750 0    39   Input ~ 0
BUCK_SW
Wire Wire Line
	4450 1750 4450 1900
$Comp
L power:GND #PWR015
U 1 1 60E4E91F
P 4450 2150
F 0 "#PWR015" H 4450 1900 50  0001 C CNN
F 1 "GND" H 4455 1977 50  0000 C CNN
F 2 "" H 4450 2150 50  0001 C CNN
F 3 "" H 4450 2150 50  0001 C CNN
	1    4450 2150
	1    0    0    -1  
$EndComp
Wire Wire Line
	4450 2100 4450 2150
Wire Wire Line
	4250 1750 4450 1750
Connection ~ 4450 1750
$Comp
L Device:L_Small L1
U 1 1 60E56CF7
P 4850 1750
F 0 "L1" V 5035 1750 50  0000 C CNN
F 1 "L_Small" V 4944 1750 50  0000 C CNN
F 2 "Inductor_SMD:L_Sunlord_MWSA0518_5.4x5.2mm" H 4850 1750 50  0001 C CNN
F 3 "~" H 4850 1750 50  0001 C CNN
	1    4850 1750
	0    -1   -1   0   
$EndComp
$Comp
L Device:C_Small C3
U 1 1 60E5B2FE
P 5150 1950
F 0 "C3" H 5242 1996 50  0000 L CNN
F 1 "10u" H 5242 1905 50  0000 L CNN
F 2 "Capacitor_SMD:C_1206_3216Metric" H 5150 1950 50  0001 C CNN
F 3 "~" H 5150 1950 50  0001 C CNN
	1    5150 1950
	1    0    0    -1  
$EndComp
$Comp
L Device:C_Small C4
U 1 1 60E5B38C
P 5500 1950
F 0 "C4" H 5592 1996 50  0000 L CNN
F 1 "10u" H 5592 1905 50  0000 L CNN
F 2 "Capacitor_SMD:C_1206_3216Metric" H 5500 1950 50  0001 C CNN
F 3 "~" H 5500 1950 50  0001 C CNN
	1    5500 1950
	1    0    0    -1  
$EndComp
Wire Wire Line
	5150 1750 5150 1850
Wire Wire Line
	5150 1750 5500 1750
Wire Wire Line
	5500 1750 5500 1850
Connection ~ 5150 1750
$Comp
L power:GND #PWR020
U 1 1 60E63BC2
P 5150 2150
F 0 "#PWR020" H 5150 1900 50  0001 C CNN
F 1 "GND" H 5155 1977 50  0000 C CNN
F 2 "" H 5150 2150 50  0001 C CNN
F 3 "" H 5150 2150 50  0001 C CNN
	1    5150 2150
	1    0    0    -1  
$EndComp
$Comp
L power:GND #PWR024
U 1 1 60E63C0D
P 5500 2150
F 0 "#PWR024" H 5500 1900 50  0001 C CNN
F 1 "GND" H 5505 1977 50  0000 C CNN
F 2 "" H 5500 2150 50  0001 C CNN
F 3 "" H 5500 2150 50  0001 C CNN
	1    5500 2150
	1    0    0    -1  
$EndComp
Wire Wire Line
	5150 2050 5150 2150
Wire Wire Line
	5500 2050 5500 2150
$Comp
L power:+3.3V #PWR023
U 1 1 60E87C8A
P 5500 1700
F 0 "#PWR023" H 5500 1550 50  0001 C CNN
F 1 "+3.3V" H 5515 1873 50  0000 C CNN
F 2 "" H 5500 1700 50  0001 C CNN
F 3 "" H 5500 1700 50  0001 C CNN
	1    5500 1700
	1    0    0    -1  
$EndComp
Wire Wire Line
	5500 1700 5500 1750
Connection ~ 5500 1750
Wire Wire Line
	4950 1750 5150 1750
Wire Wire Line
	4450 1750 4750 1750
$Comp
L Device:R_Small R3
U 1 1 60E91850
P 4650 2850
F 0 "R3" H 4750 2850 50  0000 C CNN
F 1 "47k" H 4500 2850 50  0000 C CNN
F 2 "Resistor_SMD:R_0603_1608Metric" H 4650 2850 50  0001 C CNN
F 3 "~" H 4650 2850 50  0001 C CNN
	1    4650 2850
	-1   0    0    1   
$EndComp
$Comp
L Device:R_Small R4
U 1 1 60E919F4
P 4650 3200
F 0 "R4" H 4750 3200 50  0000 C CNN
F 1 "15k" H 4500 3200 50  0000 C CNN
F 2 "Resistor_SMD:R_0603_1608Metric" H 4650 3200 50  0001 C CNN
F 3 "~" H 4650 3200 50  0001 C CNN
	1    4650 3200
	-1   0    0    1   
$EndComp
$Comp
L Device:R_Small R5
U 1 1 60E91A68
P 4650 3450
F 0 "R5" H 4750 3450 50  0000 C CNN
F 1 "270" H 4500 3450 50  0000 C CNN
F 2 "Resistor_SMD:R_0603_1608Metric" H 4650 3450 50  0001 C CNN
F 3 "~" H 4650 3450 50  0001 C CNN
	1    4650 3450
	-1   0    0    1   
$EndComp
Wire Wire Line
	4650 3300 4650 3350
Wire Wire Line
	4650 2950 4650 3050
$Comp
L power:GND #PWR019
U 1 1 60E9FB1E
P 4650 3600
F 0 "#PWR019" H 4650 3350 50  0001 C CNN
F 1 "GND" H 4655 3427 50  0000 C CNN
F 2 "" H 4650 3600 50  0001 C CNN
F 3 "" H 4650 3600 50  0001 C CNN
	1    4650 3600
	1    0    0    -1  
$EndComp
Wire Wire Line
	4650 3600 4650 3550
$Comp
L power:+3.3V #PWR018
U 1 1 60EA47ED
P 4650 2650
F 0 "#PWR018" H 4650 2500 50  0001 C CNN
F 1 "+3.3V" H 4665 2823 50  0000 C CNN
F 2 "" H 4650 2650 50  0001 C CNN
F 3 "" H 4650 2650 50  0001 C CNN
	1    4650 2650
	1    0    0    -1  
$EndComp
Wire Wire Line
	4650 2650 4650 2750
Text GLabel 4750 3050 2    39   Input ~ 0
BUCK_FB
Wire Wire Line
	4750 3050 4650 3050
Connection ~ 4650 3050
Wire Wire Line
	4650 3050 4650 3100
Wire Notes Line
	950  1050 950  4050
Wire Notes Line
	950  4050 6350 4050
Wire Notes Line
	6350 4050 6350 1050
Wire Notes Line
	950  1050 6350 1050
Text Notes 1050 1200 0    79   ~ 16
Power Circuitry
$Comp
L Connector:Screw_Terminal_01x02 J1
U 1 1 60ED6E85
P 1500 4950
F 0 "J1" H 1500 4700 50  0000 C CNN
F 1 "Screw_Terminal_01x02" V 1650 5000 50  0000 C CNN
F 2 "TerminalBlock_Phoenix:TerminalBlock_Phoenix_PT-1,5-2-3.5-H_1x02_P3.50mm_Horizontal" H 1500 4950 50  0001 C CNN
F 3 "~" H 1500 4950 50  0001 C CNN
	1    1500 4950
	1    0    0    -1  
$EndComp
$Comp
L power:+12V #PWR02
U 1 1 60ED71C7
P 1250 4850
F 0 "#PWR02" H 1250 4700 50  0001 C CNN
F 1 "+12V" H 1265 5023 50  0000 C CNN
F 2 "" H 1250 4850 50  0001 C CNN
F 3 "" H 1250 4850 50  0001 C CNN
	1    1250 4850
	1    0    0    -1  
$EndComp
$Comp
L power:GND #PWR03
U 1 1 60ED7701
P 1250 5150
F 0 "#PWR03" H 1250 4900 50  0001 C CNN
F 1 "GND" H 1255 4977 50  0000 C CNN
F 2 "" H 1250 5150 50  0001 C CNN
F 3 "" H 1250 5150 50  0001 C CNN
	1    1250 5150
	1    0    0    -1  
$EndComp
$Comp
L Connector_Generic:Conn_02x05_Odd_Even J3
U 1 1 60EE21DC
P 2600 5000
F 0 "J3" H 2650 5417 50  0000 C CNN
F 1 "COrtex Debug" H 2650 5326 50  0000 C CNN
F 2 "Connector_PinSocket_1.27mm:PinSocket_2x05_P1.27mm_Vertical_SMD" H 2600 5000 50  0001 C CNN
F 3 "~" H 2600 5000 50  0001 C CNN
	1    2600 5000
	1    0    0    -1  
$EndComp
$Comp
L power:+3.3V #PWR07
U 1 1 60EE26BE
P 2150 4750
F 0 "#PWR07" H 2150 4600 50  0001 C CNN
F 1 "+3.3V" H 2165 4923 50  0000 C CNN
F 2 "" H 2150 4750 50  0001 C CNN
F 3 "" H 2150 4750 50  0001 C CNN
	1    2150 4750
	1    0    0    -1  
$EndComp
Wire Wire Line
	2150 4750 2150 4800
Wire Wire Line
	2150 4800 2400 4800
$Comp
L power:GND #PWR08
U 1 1 60EE803B
P 2150 5300
F 0 "#PWR08" H 2150 5050 50  0001 C CNN
F 1 "GND" H 2155 5127 50  0000 C CNN
F 2 "" H 2150 5300 50  0001 C CNN
F 3 "" H 2150 5300 50  0001 C CNN
	1    2150 5300
	1    0    0    -1  
$EndComp
Wire Wire Line
	2400 4900 2150 4900
Wire Wire Line
	2150 4900 2150 5000
Wire Wire Line
	2400 5000 2150 5000
Connection ~ 2150 5000
Wire Wire Line
	2400 5200 2150 5200
Wire Wire Line
	2150 5000 2150 5200
Connection ~ 2150 5200
Wire Wire Line
	2150 5300 2150 5200
NoConn ~ 2400 5100
Text GLabel 3000 4800 2    39   Input ~ 0
SWDIO
Wire Wire Line
	3000 4800 2900 4800
Text GLabel 3000 4900 2    39   Input ~ 0
SWCLK
Wire Wire Line
	3000 4900 2900 4900
Text GLabel 3000 5000 2    39   Input ~ 0
SWO
Wire Wire Line
	3000 5100 2900 5100
Wire Wire Line
	3000 5000 2900 5000
NoConn ~ 3000 5100
Text GLabel 3000 5200 2    39   Input ~ 0
NRST
Wire Wire Line
	3000 5200 2900 5200
Wire Notes Line
	950  4200 950  7350
Wire Notes Line
	950  7350 6350 7350
Wire Notes Line
	6350 7350 6350 4200
Wire Notes Line
	6350 4200 950  4200
$Comp
L Device:R_Small R9
U 1 1 60DD9514
P 10650 6050
F 0 "R9" H 10709 6096 50  0000 L CNN
F 1 "2k2" H 10709 6005 50  0000 L CNN
F 2 "Resistor_SMD:R_0402_1005Metric" H 10650 6050 50  0001 C CNN
F 3 "~" H 10650 6050 50  0001 C CNN
	1    10650 6050
	1    0    0    -1  
$EndComp
$Comp
L Device:R_Small R10
U 1 1 60DD9EBE
P 10900 6050
F 0 "R10" H 10959 6096 50  0000 L CNN
F 1 "2k2" H 10959 6005 50  0000 L CNN
F 2 "Resistor_SMD:R_0402_1005Metric" H 10900 6050 50  0001 C CNN
F 3 "~" H 10900 6050 50  0001 C CNN
	1    10900 6050
	1    0    0    -1  
$EndComp
$Comp
L power:+3.3V #PWR038
U 1 1 60DDA174
P 10650 5900
F 0 "#PWR038" H 10650 5750 50  0001 C CNN
F 1 "+3.3V" H 10665 6073 50  0000 C CNN
F 2 "" H 10650 5900 50  0001 C CNN
F 3 "" H 10650 5900 50  0001 C CNN
	1    10650 5900
	1    0    0    -1  
$EndComp
$Comp
L power:+3.3V #PWR041
U 1 1 60DDB460
P 10900 5900
F 0 "#PWR041" H 10900 5750 50  0001 C CNN
F 1 "+3.3V" H 10915 6073 50  0000 C CNN
F 2 "" H 10900 5900 50  0001 C CNN
F 3 "" H 10900 5900 50  0001 C CNN
	1    10900 5900
	1    0    0    -1  
$EndComp
Wire Wire Line
	10650 5900 10650 5950
Wire Wire Line
	10900 5900 10900 5950
Text GLabel 10450 6250 0    50   Input ~ 0
I2C1_SCL
Text GLabel 10450 6400 0    50   Input ~ 0
I2C1_SDA
Wire Wire Line
	10650 6150 10650 6250
Wire Wire Line
	10650 6250 10450 6250
Wire Wire Line
	10900 6150 10900 6400
Wire Wire Line
	10900 6400 10450 6400
$Comp
L Connector_Generic:Conn_01x04 J4
U 1 1 60DF8F8B
P 4450 4950
F 0 "J4" H 4530 4942 50  0000 L CNN
F 1 "I2C" H 4530 4851 50  0000 L CNN
F 2 "Connector_Molex:Molex_PicoBlade_53048-0410_1x04_P1.25mm_Horizontal" H 4450 4950 50  0001 C CNN
F 3 "~" H 4450 4950 50  0001 C CNN
	1    4450 4950
	1    0    0    -1  
$EndComp
$Comp
L Connector_Generic:Conn_01x04 J5
U 1 1 60DFA7B4
P 5650 4950
F 0 "J5" H 5730 4942 50  0000 L CNN
F 1 "UART" H 5730 4851 50  0000 L CNN
F 2 "Connector_Molex:Molex_PicoBlade_53048-0410_1x04_P1.25mm_Horizontal" H 5650 4950 50  0001 C CNN
F 3 "~" H 5650 4950 50  0001 C CNN
	1    5650 4950
	1    0    0    -1  
$EndComp
$Comp
L power:+3.3V #PWR013
U 1 1 60DFB687
P 4200 4800
F 0 "#PWR013" H 4200 4650 50  0001 C CNN
F 1 "+3.3V" H 4215 4973 50  0000 C CNN
F 2 "" H 4200 4800 50  0001 C CNN
F 3 "" H 4200 4800 50  0001 C CNN
	1    4200 4800
	1    0    0    -1  
$EndComp
$Comp
L power:+3.3V #PWR021
U 1 1 60DFBE6E
P 5400 4750
F 0 "#PWR021" H 5400 4600 50  0001 C CNN
F 1 "+3.3V" H 5415 4923 50  0000 C CNN
F 2 "" H 5400 4750 50  0001 C CNN
F 3 "" H 5400 4750 50  0001 C CNN
	1    5400 4750
	1    0    0    -1  
$EndComp
Wire Wire Line
	4200 4800 4200 4850
Wire Wire Line
	4200 4850 4250 4850
Wire Wire Line
	5400 4750 5400 4850
Wire Wire Line
	5400 4850 5450 4850
$Comp
L power:GND #PWR014
U 1 1 60E1358E
P 4200 5250
F 0 "#PWR014" H 4200 5000 50  0001 C CNN
F 1 "GND" H 4205 5077 50  0000 C CNN
F 2 "" H 4200 5250 50  0001 C CNN
F 3 "" H 4200 5250 50  0001 C CNN
	1    4200 5250
	1    0    0    -1  
$EndComp
$Comp
L power:GND #PWR022
U 1 1 60E13F8D
P 5400 5250
F 0 "#PWR022" H 5400 5000 50  0001 C CNN
F 1 "GND" H 5405 5077 50  0000 C CNN
F 2 "" H 5400 5250 50  0001 C CNN
F 3 "" H 5400 5250 50  0001 C CNN
	1    5400 5250
	1    0    0    -1  
$EndComp
Wire Wire Line
	5400 5250 5400 5150
Wire Wire Line
	5400 5150 5450 5150
Wire Wire Line
	4200 5250 4200 5150
Wire Wire Line
	4200 5150 4250 5150
Text GLabel 4050 4950 0    50   Input ~ 0
I2C1_SCL
Wire Wire Line
	4050 4950 4250 4950
Text GLabel 4050 5050 0    50   Input ~ 0
I2C1_SDA
Wire Wire Line
	4050 5050 4250 5050
Text GLabel 5400 4950 0    50   Input ~ 0
UART3_Tx
Wire Wire Line
	5400 4950 5450 4950
Text GLabel 5400 5050 0    50   Input ~ 0
UART3_Rx
Wire Wire Line
	5400 5050 5450 5050
$Comp
L Connector:USB_B_Micro J2
U 1 1 60E786C1
P 2050 6350
F 0 "J2" H 2107 6817 50  0000 C CNN
F 1 "USB_B_Micro" H 2107 6726 50  0000 C CNN
F 2 "Connector_USB:USB_Mini-B_Wuerth_65100516121_Horizontal" H 2200 6300 50  0001 C CNN
F 3 "~" H 2200 6300 50  0001 C CNN
	1    2050 6350
	1    0    0    -1  
$EndComp
$Comp
L power:GND #PWR05
U 1 1 60E79B8A
P 2050 6850
F 0 "#PWR05" H 2050 6600 50  0001 C CNN
F 1 "GND" H 2055 6677 50  0000 C CNN
F 2 "" H 2050 6850 50  0001 C CNN
F 3 "" H 2050 6850 50  0001 C CNN
	1    2050 6850
	1    0    0    -1  
$EndComp
Wire Wire Line
	2050 6850 2050 6750
NoConn ~ 1950 6750
$Comp
L Power_Protection:USBLC6-2SC6 U2
U 1 1 60E8BB92
P 4550 6350
F 0 "U2" H 4750 6550 50  0000 C CNN
F 1 "USBLC6-2SC6" H 5000 6750 50  0000 C CNN
F 2 "Package_TO_SOT_SMD:SOT-23-6" H 3800 6750 50  0001 C CNN
F 3 "http://www2.st.com/resource/en/datasheet/CD00050750.pdf" H 4750 6700 50  0001 C CNN
	1    4550 6350
	1    0    0    -1  
$EndComp
$Comp
L Device:D_Schottky_Small D1
U 1 1 60EA0126
P 2100 1400
F 0 "D1" V 2150 1250 50  0000 L CNN
F 1 "B5819W" V 1750 1250 50  0000 L CNN
F 2 "Diode_SMD:D_SOD-123" V 2100 1400 50  0001 C CNN
F 3 "~" V 2100 1400 50  0001 C CNN
	1    2100 1400
	0    -1   -1   0   
$EndComp
Wire Wire Line
	1950 1650 2100 1650
Wire Wire Line
	2100 1500 2100 1650
Wire Wire Line
	2100 1650 2300 1650
$Comp
L power:+5V #PWR09
U 1 1 60EC42A5
P 2100 1300
F 0 "#PWR09" H 2100 1150 50  0001 C CNN
F 1 "+5V" H 2115 1473 50  0000 C CNN
F 2 "" H 2100 1300 50  0001 C CNN
F 3 "" H 2100 1300 50  0001 C CNN
	1    2100 1300
	1    0    0    -1  
$EndComp
$Comp
L power:+5V #PWR010
U 1 1 60EC5357
P 2500 6000
F 0 "#PWR010" H 2500 5850 50  0001 C CNN
F 1 "+5V" H 2515 6173 50  0000 C CNN
F 2 "" H 2500 6000 50  0001 C CNN
F 3 "" H 2500 6000 50  0001 C CNN
	1    2500 6000
	1    0    0    -1  
$EndComp
Wire Wire Line
	2500 6000 2500 6150
Wire Wire Line
	2500 6150 2350 6150
Text GLabel 2400 6350 2    50   Input ~ 0
USB_CONN_D+
Wire Wire Line
	2400 6350 2350 6350
Text GLabel 2400 6450 2    50   Input ~ 0
USB_CONN_D-
Wire Wire Line
	2400 6450 2350 6450
NoConn ~ 2350 6550
$Comp
L power:+5V #PWR016
U 1 1 60EF7465
P 4550 5850
F 0 "#PWR016" H 4550 5700 50  0001 C CNN
F 1 "+5V" H 4565 6023 50  0000 C CNN
F 2 "" H 4550 5850 50  0001 C CNN
F 3 "" H 4550 5850 50  0001 C CNN
	1    4550 5850
	1    0    0    -1  
$EndComp
$Comp
L power:GND #PWR017
U 1 1 60EF82CC
P 4550 6900
F 0 "#PWR017" H 4550 6650 50  0001 C CNN
F 1 "GND" H 4555 6727 50  0000 C CNN
F 2 "" H 4550 6900 50  0001 C CNN
F 3 "" H 4550 6900 50  0001 C CNN
	1    4550 6900
	1    0    0    -1  
$EndComp
Wire Wire Line
	4550 6900 4550 6850
Text GLabel 4000 6450 0    50   Input ~ 0
USB_CONN_D-
Text GLabel 5100 6450 2    50   Input ~ 0
USB_CONN_D+
Text GLabel 3950 6250 0    50   Input ~ 0
USB_D-
Text GLabel 5100 6250 2    50   Input ~ 0
USB_D+
Wire Wire Line
	5100 6250 5050 6250
Wire Wire Line
	5100 6450 5050 6450
Wire Wire Line
	3950 6250 4050 6250
Wire Wire Line
	4000 6450 4050 6450
Text Notes 1100 4400 0    79   ~ 16
Connector and USB
$Comp
L Device:LED_Small D4
U 1 1 60F6E58E
P 5600 2950
F 0 "D4" V 5650 2850 50  0000 C CNN
F 1 "Green" V 5400 2800 50  0000 C CNN
F 2 "LED_SMD:LED_0603_1608Metric" V 5600 2950 50  0001 C CNN
F 3 "~" V 5600 2950 50  0001 C CNN
	1    5600 2950
	0    -1   -1   0   
$EndComp
$Comp
L Device:R_Small R11
U 1 1 60F6EFD7
P 5600 3250
F 0 "R11" H 5700 3250 50  0000 C CNN
F 1 "1k" H 5495 3250 50  0000 C CNN
F 2 "Resistor_SMD:R_0603_1608Metric" H 5600 3250 50  0001 C CNN
F 3 "~" H 5600 3250 50  0001 C CNN
	1    5600 3250
	-1   0    0    1   
$EndComp
$Comp
L power:GND #PWR043
U 1 1 60F6F704
P 5600 3450
F 0 "#PWR043" H 5600 3200 50  0001 C CNN
F 1 "GND" H 5605 3277 50  0000 C CNN
F 2 "" H 5600 3450 50  0001 C CNN
F 3 "" H 5600 3450 50  0001 C CNN
	1    5600 3450
	1    0    0    -1  
$EndComp
Wire Wire Line
	5600 3050 5600 3150
Wire Wire Line
	5600 3350 5600 3450
$Comp
L power:+3.3V #PWR042
U 1 1 60F9FCB0
P 5600 2800
F 0 "#PWR042" H 5600 2650 50  0001 C CNN
F 1 "+3.3V" H 5615 2973 50  0000 C CNN
F 2 "" H 5600 2800 50  0001 C CNN
F 3 "" H 5600 2800 50  0001 C CNN
	1    5600 2800
	1    0    0    -1  
$EndComp
Wire Wire Line
	5600 2800 5600 2850
$Comp
L Mechanical:MountingHole_Pad H1
U 1 1 60FB8838
P 5900 5700
F 0 "H1" V 5854 5850 50  0000 L CNN
F 1 "MountingHole_Pad" V 5945 5850 50  0000 L CNN
F 2 "MountingHole:MountingHole_4.3mm_M4_Pad_Via" H 5900 5700 50  0001 C CNN
F 3 "~" H 5900 5700 50  0001 C CNN
	1    5900 5700
	0    1    1    0   
$EndComp
$Comp
L Mechanical:MountingHole_Pad H2
U 1 1 60FB8B55
P 5900 5950
F 0 "H2" V 5854 6100 50  0000 L CNN
F 1 "MountingHole_Pad" V 5945 6100 50  0000 L CNN
F 2 "MountingHole:MountingHole_4.3mm_M4_Pad_Via" H 5900 5950 50  0001 C CNN
F 3 "~" H 5900 5950 50  0001 C CNN
	1    5900 5950
	0    1    1    0   
$EndComp
$Comp
L Mechanical:MountingHole_Pad H3
U 1 1 60FB9167
P 5900 6200
F 0 "H3" V 5854 6350 50  0000 L CNN
F 1 "MountingHole_Pad" V 5945 6350 50  0000 L CNN
F 2 "MountingHole:MountingHole_4.3mm_M4_Pad_Via" H 5900 6200 50  0001 C CNN
F 3 "~" H 5900 6200 50  0001 C CNN
	1    5900 6200
	0    1    1    0   
$EndComp
$Comp
L Mechanical:MountingHole_Pad H4
U 1 1 60FB94B9
P 5900 6450
F 0 "H4" V 5854 6600 50  0000 L CNN
F 1 "MountingHole_Pad" V 5945 6600 50  0000 L CNN
F 2 "MountingHole:MountingHole_4.3mm_M4_Pad_Via" H 5900 6450 50  0001 C CNN
F 3 "~" H 5900 6450 50  0001 C CNN
	1    5900 6450
	0    1    1    0   
$EndComp
Wire Wire Line
	5800 5700 5800 5950
Wire Wire Line
	5800 5950 5800 6200
Connection ~ 5800 5950
Wire Wire Line
	5800 6450 5800 6200
Connection ~ 5800 6200
$Comp
L power:GND #PWR0101
U 1 1 60FD84CB
P 5800 6650
F 0 "#PWR0101" H 5800 6400 50  0001 C CNN
F 1 "GND" H 5805 6477 50  0000 C CNN
F 2 "" H 5800 6650 50  0001 C CNN
F 3 "" H 5800 6650 50  0001 C CNN
	1    5800 6650
	1    0    0    -1  
$EndComp
Wire Wire Line
	5800 6650 5800 6450
Connection ~ 5800 6450
Connection ~ 2100 1650
Wire Wire Line
	1250 1650 1550 1650
Wire Wire Line
	2650 1650 2500 1650
Wire Wire Line
	1250 4850 1250 4950
Wire Wire Line
	1250 4950 1300 4950
Wire Wire Line
	1250 5150 1250 5050
Wire Wire Line
	1250 5050 1300 5050
$EndSCHEMATC
